RAM/ram.vcd
$date
	Mon Nov 11 22:37:46 2024
$end
$version
	Icarus Verilog
$end
$timescale
	1ps
$end
$scope module ram_tb $end
$var wire 8 ! rdData [7:0] $end
$var parameter 32 " AddrWidth $end
$var parameter 32 # Depth $end
$var parameter 32 $ Width $end
$var reg 1 % clk $end
$var reg 4 & rdAddr [3:0] $end
$var reg 4 ' wrAddr [3:0] $end
$var reg 8 ( wrData [7:0] $end
$var reg 1 ) wrEn $end
$scope module uut $end
$var wire 1 % clk $end
$var wire 4 * rdAddr [3:0] $end
$var wire 4 + wrAddr [3:0] $end
$var wire 8 , wrData [7:0] $end
$var wire 1 ) wrEn $end
$var parameter 32 - Depth $end
$var parameter 32 . Width $end
$var reg 8 / rdData [7:0] $end
$upscope $end
$scope begin $ivl_for_loop0 $end
$var integer 32 0 i [31:0] $end
$upscope $end
$scope begin $ivl_for_loop1 $end
$var integer 32 1 i [31:0] $end
$upscope $end
$upscope $end
$enddefinitions $end
$comment Show the parameter values. $end
$dumpall
b1000 .
b10000 -
b1000 $
b10000 #
b100 "
$end
#0
$dumpvars
bx 1
bx 0
bx /
b0 ,
b0 +
b0 *
0)
b0 (
b0 '
b0 &
0%
bx !
$end
#5000
1%
#10000
0%
1)
b0 0
#15000
1%
#20000
0%
b10 (
b10 ,
b1 '
b1 +
b1 0
#25000
b0 !
b0 /
1%
#30000
0%
b100 (
b100 ,
b10 '
b10 +
b10 0
#35000
1%
#40000
0%
b110 (
b110 ,
b11 '
b11 +
b11 0
#45000
1%
#50000
0%
b1000 (
b1000 ,
b100 '
b100 +
b100 0
#55000
1%
#60000
0%
b1010 (
b1010 ,
b101 '
b101 +
b101 0
#65000
1%
#70000
0%
b1100 (
b1100 ,
b110 '
b110 +
b110 0
#75000
1%
#80000
0%
b1110 (
b1110 ,
b111 '
b111 +
b111 0
#85000
1%
#90000
0%
b10000 (
b10000 ,
b1000 '
b1000 +
b1000 0
#95000
1%
#100000
0%
b10010 (
b10010 ,
b1001 '
b1001 +
b1001 0
#105000
1%
#110000
0%
0)
b1010 0
#115000
1%
#120000
0%
b0 1
#125000
1%
#130000
0%
b1 &
b1 *
b1 1
#135000
b10 !
b10 /
1%
#140000
0%
b10 &
b10 *
b10 1
#145000
b100 !
b100 /
1%
#150000
0%
b11 &
b11 *
b11 1
#155000
b110 !
b110 /
1%
#160000
0%
b100 &
b100 *
b100 1
#165000
b1000 !
b1000 /
1%
#170000
0%
b101 &
b101 *
b101 1
#175000
b1010 !
b1010 /
1%
#180000
0%
b110 &
b110 *
b110 1
#185000
b1100 !
b1100 /
1%
#190000
0%
b111 &
b111 *
b111 1
#195000
b1110 !
b1110 /
1%
#200000
0%
b1000 &
b1000 *
b1000 1
#205000
b10000 !
b10000 /
1%
#210000
0%
b1001 &
b1001 *
b1001 1
#215000
b10010 !
b10010 /
1%
#220000
0%
b1010 1
